{
  "1955 Dodge": 0,
  "Dodge": 0,
  "Convertible": 1,
  "230 cubic inches": 2,
  "Hardtop": 3,
  "Station wagon": 4,
  "\"Dodge Coronet\"": 5,
  "Dodge Coronet": 5,
  "V8 engine": 6,
  "Sedan (automobile)": 7,
  "DeSoto Custom": 8,
  "DeSoto (automobile)": 9,
  "Chrysler Newport": 10,
  "Plymouth Plaza": 11,
  "AIDA Cruises": 12,
  "Germany": 13,
  "AIDAluna": 14,
  "AIDAstella": 15,
  "Rostock": 16,
  "2009-04-04": 17,
  "1921-04-11": 17,
  "252000.0 millimetres": 18,
  "192000.0 millimetres": 18,
  "2160.0 millimetres": 18,
  "2009-03-22": 19,
  "2013-03-16": 19,
  "2013-03-11": 19,
  "2013-03-17": 19,
  "1998-03-16": 19,
  "1979-03-30": 19,
  "1974-03-04": 19,
  "\"Sphinx class cruise ship\"": 20,
  "\"Sphinx-class cruise ship\"": 20,
  "40.744": 21,
  "253260.0 millimetres": 22,
  "63800.0 millimetres": 22,
  "AMC Matador": 23,
  "\"Mexico\"": 24,
  "Mexico": 24,
  "1971": 25,
  "\"USA\"": 26,
  "Kenosha , Wisconsin": 27,
  "Port Melbourne , Victoria": 28,
  "Thames , New Zealand": 29,
  "Richard A. Teague": 30,
  "Chrysler": 31,
  "General Motors": 32,
  "American Motors": 33,
  "Roy D. Chapin , Jr.": 34,
  "ARA Veinticinco de Mayo (V-2)": 35,
  "24.4": 36,
  "Abarth": 37,
  "Bologna": 38,
  "Abarth 1000 GT Coupé": 39,
  "\"Two door coupé\"": 40,
  "Straight-four engine": 41,
  "Coupé": 42,
  "Carlo Abarth": 43,
  "1958": 44,
  "Acura TLX": 45,
  "Marysville , Ohio": 46,
  "Honda K engine": 47,
  "Inline-four engine": 48,
  "Honda": 49,
  "2.4 litres": 50,
  "5.3 litres": 50,
  "3.5 litres": 50,
  "Acura": 51,
  "Aleksey Chirikov (icebreaker)": 52,
  "Arctech Helsinki Shipyard": 53,
  "Finland": 54,
  "Finns": 55,
  "Sauli Niinistö": 56,
  "Alfa Romeo 164": 57,
  "\"Alfa Romeo 168\"": 57,
  "\"Mid-size luxury / Executive car\"": 58,
  "Arese": 59,
  "Lancia Thema": 60,
  "Saab 9000": 61,
  "Alhambra": 62,
  "1855-07-07": 63,
  "\"1971-07-01\"": 63,
  "\"1907-07-11\"": 63,
  "P&O company": 64,
  "London": 65,
  "Samuda Brothers": 66,
  "Humphrys , Tennant and Dykes": 67,
  "Deptford": 68,
  "\"Geared steam engine Humphrys , Tennant and Dykes 140hp\"": 69,
  "Alvis Speed 25": 70,
  "\"Petrol\"": 71,
  "\"single plate clutch , separate 4-speed gearbox all-silent and all-syncromesh , centre change lever , open tubular propellor shaft with metal joints , spiral bevel fully floating back axle\"": 72,
  "Alvis Car and Engineering Company": 73,
  "Coventry": 74,
  "Full-size car": 75,
  "31.48 tax horsepower": 76,
  "4387.0 cubic centimetres": 77,
  "Ariane 5": 78,
  "Airbus Defence and Space": 79,
  "Airbus Group": 80,
  "Guiana Space Centre": 81,
  "Arianespace": 82,
  "European Space Agency": 83,
  "Aston Martin V8": 84,
  "Aston Martin": 84,
  "Aston Martin DBS": 84,
  "Aston Martin Virage": 85,
  "Aston Martin Vantage": 85,
  "\"Newport Pagnell , Buckinghamshire , England , United Kingdom\"": 86,
  "Newport Pagnell": 87,
  "Atlas II": 88,
  "3.04 m": 89,
  "Cape Canaveral Air Force Station": 90,
  "Lockheed Martin": 91,
  "Spaceport Florida Launch Complex 36": 92,
  "United States Air Force": 93,
  "Bethesda , Maryland": 94,
  "Costa Crociere": 95,
  "Genoa": 96,
  "Sovcomflot": 97,
  "Sergey Naryshkin": 98,
  "Perth": 99,
  "Australia": 100,
  "108 St Georges Terrace": 101,
  "20 Fenchurch Street": 102,
  "\"January 2009\"": 103,
  "\"January 2014\"": 103,
  "62145.3 square metres": 104,
  "140000 square metres": 104,
  "Boris Johnson": 105,
  "European Parliament": 106,
  "Parliament of the United Kingdom": 107,
  "250 Delaware Avenue": 108,
  "12": 109,
  "Buffalo , New York": 110,
  "Erie County , New York": 111,
  "New York": 112,
  "Byron Brown": 113,
  "300 North LaSalle": 114,
  "2009": 115,
  "60": 116,
  "Illinois": 117,
  "320 South Boston Building": 118,
  "1929": 119,
  "22": 120,
  "AC Hotel Bella Sky Copenhagen": 121,
  "3XN": 122,
  "23": 123,
  "Bella Center": 124,
  "814": 125,
  "Denmark": 126,
  "Marriott International": 127,
  "Copenhagen": 128,
  "Bill Marriott": 129,
  "Adare Manor": 130,
  "James Pain and George Richard Pain": 131,
  "1862": 132,
  "Augustus Pugin": 133,
  "Bloomsbury": 134,
  "Palace of Westminster": 135,
  "George Richard Pain": 136,
  "James Pain": 137,
  "Republic of Ireland": 138,
  "Enda Kenny": 139,
  "Addis Ababa": 140,
  "Addis Ababa Stadium": 141,
  "Addis Ababa City Hall": 142,
  "1961": 143,
  "4.14 square kilometres": 104,
  "\"Government of Addis Ababa\"": 144,
  "Alan B. Miller Hall": 145,
  "\"101 Ukrop Way\"": 146,
  "\"30 March 2007\"": 147,
  "\"1 June 2009\"": 148,
  "Virginia": 149,
  "College of William & Mary": 150,
  "Williamsburg , Virginia": 151,
  "Robert Gates": 152,
  "Amdavad ni Gufa": 153,
  "India": 154,
  "\"India\"": 154,
  "Ahmedabad": 155,
  "Gujarat": 156,
  "Eastern Province , Sri Lanka": 157,
  "Austin Fernando": 158,
  "Ampara Hospital": 159,
  "Asher and Mary Isabelle Richardson House": 160,
  "\"88002539\"": 161,
  "Asherton , Texas": 162,
  "1911": 163,
  "U.S. Route 83": 164,
  "\"1988-11-22\"": 165,
  "1978-11-12": 165,
  "1958-11-02": 165,
  "Dimmit County , Texas": 166,
  "Asilomar Conference Grounds": 167,
  "\"87000823\"": 168,
  "\"Asilomar Blvd., Pacific Grove , California\"": 169,
  "Pacific Grove , California": 170,
  "\"1987-02-27\"": 171,
  "1989-02-24": 171,
  "Arts and Crafts movement": 172,
  "Asser Levy Public Baths": 173,
  "\"Asser Levy Place and East 23rd Street\"": 174,
  "1904": 175,
  "23rd Street (Manhattan)": 176,
  "Avenue A (Manhattan)": 177,
  "Manhattan": 178,
  "New York City": 179,
  "Brooklyn": 180,
  "New Netherland": 181,
  "Anandiben Patel": 182,
  "Indian people": 183,
  "T S Thakur": 184,
  "T. S. Thakur": 184,
  "Aaron Bertram": 185,
  "Kids Imagine Nation": 186,
  "Suburban Legends": 187,
  "Ska punk": 188,
  "Pop music": 189,
  "Ska": 190,
  "Abradab": 191,
  "Katowice": 192,
  "Poland": 193,
  "Kashubians": 194,
  "Hip hop music": 195,
  "Drum and bass": 196,
  "Gangsta rap": 197,
  "Disco": 198,
  "Ace Wilder": 199,
  "\"solo singer\"": 200,
  "Sweden": 201,
  "Stockholm": 202,
  "Electropop": 203,
  "Songwriter": 204,
  "EMI Records": 205,
  "Warner Music Group": 206,
  "Agustín Barboza": 207,
  "Paraguay": 208,
  "Philips Records": 209,
  "Attica , Indiana": 210,
  "783.1 inhabitants per square kilometre": 211,
  "Washington (state)": 212,
  "Olympia , Washington": 213,
  "Auburn , Washington": 214,
  "1634: The Bavarian Crisis": 215,
  "Eric Flint": 216,
  "\"Print\"": 217,
  "Virginia DeMarce": 218,
  "AIDS (journal)": 219,
  "\"1473-5571\"": 220,
  "HIV": 221,
  "1987": 222,
  "Lippincott Williams & Wilkins": 223,
  "Wolters Kluwer": 224,
  "AIP Advances": 225,
  "2158": 226,
  "\"AIP Adv.\"": 227,
  "A.T. Charlie Johnson": 228,
  "Harvard University": 229,
  "Stanford University": 230,
  "Michael Tinkham": 231,
  "\"1.524\"": 232,
  "A Fortress of Grey Ice": 233,
  "\"0-7653-0633-6\"": 234,
  "\"672\"": 235,
  "Tor Books": 236,
  "Macmillan Publishers": 237,
  "A Glastonbury Romance": 238,
  "\"0-7156-3648-0\"": 239,
  "76798317": 240,
  "John Cowper Powys": 241,
  "The Bodley Head": 242,
  "Wolf Solent": 243,
  "Simon & Schuster": 244,
  "Charles Elkin Mathews": 245,
  "A Long Long Way": 246,
  "\"0-670-03380-4\"": 247,
  "57392246": 248,
  "\"Print  & Paperback\"": 249,
  "Ireland": 250,
  "White people": 251,
  "\"292\"": 252,
  "A Loyal Character Dancer": 253,
  "\"1-56947-301-3\"": 254,
  "\"360\"": 255,
  "Qiu Xiaolong": 256,
  "A Severed Wasp": 257,
  "\"0-374-26131-8\"": 258,
  "8805735": 259,
  "Madeleine L'Engle": 260,
  "George MacDonald": 261,
  "\"388\"": 262,
  "Farrar , Straus and Giroux": 263,
  "A Wizard of Mars": 264,
  "Wizards at War": 265,
  "Harcourt (publisher)": 266,
  "Springer Science+Business Media": 267,
  "Julius Springer": 268,
  "Abhandlungen aus dem Mathematischen Seminar der Universität Hamburg": 269,
  "Wiley-Blackwell": 270,
  "John Wiley & Sons": 271,
  "Addiction (journal)": 272,
  "Johns Hopkins University Press": 273,
  "Johns Hopkins University": 273,
  "American Journal of Mathematics": 274,
  "Orthoretrovirinae": 275,
  "Retrovirus": 276,
  "Owen Glendower (novel)": 277,
  "SAGE Publications": 278,
  "Sara Miller McCune": 279,
  "Administrative Science Quarterly": 280,
  "19255 1994 VK8": 281,
  "6603633000.0 kilometres": 310,
  "331683000.0 kilometres": 310,
  "373513000.0 kilometres": 310,
  "4.56 kilometres per sec": 282,
  "0.0925 kilometres per sec": 282,
  "18.44 kilometres per sec": 282,
  "16.86 kilometres per sec": 282,
  "0.0482 kilometres per sec": 282,
  "19.94 kilometres per sec": 282,
  "0.0068 kilometres per sec": 282,
  "16.76 kilometres per sec": 282,
  "0.21 kilometres per sec": 282,
  "16.54 kilometres per sec": 282,
  "0.02 kilometres per sec": 282,
  "17.99 kilometres per sec": 282,
  "18.29 kilometres per sec": 282,
  "43.0 kelvins": 283,
  "173.0 kelvins": 283,
  "2.0 grams per cubic centimetre": 284,
  "2006-12-31": 285,
  "6155910000000.0": 286,
  "29075 1950 DA": 287,
  "2011-Aug-27": 288,
  "69862200.0": 289,
  "124950000000.0": 290,
  "7637.76": 291,
  "4.0 kilograms": 292,
  "7.9 kilograms": 292,
  "6.7 kilograms": 292,
  "94.8024 (kilograms)": 292,
  "96.1632 kilograms": 292,
  "101 Helena": 293,
  "441092000.0 kilometres": 294,
  "611961000.0 kilometres": 294,
  "520906000.0 kilometres": 294,
  "440756000.0 kilometres": 294,
  "475426000.0 kilometres": 294,
  "James Craig Watson": 295,
  "University of Michigan": 296,
  "Peritonitis": 297,
  "3.0 kilograms": 292,
  "1516.6700000000003 days": 298,
  "1622.213 days": 298,
  "1036 Ganymed": 299,
  "160.0 kelvins": 300,
  "179.0 kelvins": 300,
  "164.0 kelvins": 300,
  "155.0 kelvins": 300,
  "168.0 kelvins": 300,
  "Walter Baade": 301,
  "Preußisch Oldendorf": 302,
  "Göttingen": 303,
  "West Germany": 304,
  "Allan Sandage": 305,
  "Halton Arp": 306,
  "37116.0": 307,
  "103 Hera": 308,
  "2011-08-27": 309,
  "1986-08-11": 309,
  "437170000.0 kilometres": 310,
  "371240000.0 kilometres": 310,
  "85466.9": 311,
  "107 Camilla": 312,
  "A. Storrs": 313,
  "E. Wells": 314,
  "N. R. Pogson": 315,
  "Nottingham": 316,
  "Chennai": 317,
  "M. Gaffey": 318,
  "1089 Tama": 319,
  "17.28": 320,
  "1097 Vicia": 321,
  "\"1928 PC\"": 322,
  "279142000000.0": 323,
  "10 Hygiea": 324,
  "523951582.33968 kilometres": 325,
  "837080.744 square kilometres": 326,
  "1101 Clematis": 327,
  "\"1928 SJ\"": 328,
  "183309000.0": 329,
  "110 Lydia": 330,
  "377016000000.0": 331,
  "39332.9": 332,
  "11264 Claudiomaccone": 333,
  "1513.722 days": 334,
  "11473.9": 335,
  "William Anders": 336,
  "British Hong Kong": 337,
  "Chris Patten": 338,
  "Buzz Aldrin": 339,
  "\"Edwin E. Aldrin , Jr.\"": 340,
  "\"1930-01-20\"": 341,
  "52 minutes": 342,
  "Fighter pilot": 343,
  "\"Retired\"": 344,
  "Apollo 11": 345,
  "\"Edwin Eugene Aldrin Jr\"": 346,
  "Legion of Merit ribbon": 347,
  "1963": 348,
  "Elliot See": 349,
  "University of Texas at Austin": 350,
  "\"1927-07-23\"": 351,
  "Aaron Boogaard": 352,
  "Regina , Saskatchewan": 353,
  "Wichita Thunder": 354,
  "1986": 355,
  "Aaron Hunt": 356,
  "Hamburger SV": 357,
  "SV Werder Bremen": 358,
  "SV Werder Bremen II": 358,
  "Viktor Skrypnyk": 359,
  "Alexander Nouri": 360,
  "VfL Wolfsburg": 361,
  "Abner (footballer)": 362,
  "C.D. FAS": 363,
  "Real Madrid Castilla": 364,
  "Adam McQuaid": 365,
  "Charlottetown": 366,
  "Prince Edward Island": 367,
  "Ahmad Kadhim Assad": 368,
  "Al-Zawra'a SC": 369,
  "Basim Qasim": 370,
  "Al-Quwa Al-Jawiya": 371,
  "Al Shorta SC": 372,
  "Al-Jaish SC (Syria)": 373,
  "Steel Azin FC": 374,
  "Al-Naft": 375,
  "Al-Talaba SC": 376,
  "PAS Tehran FC": 377,
  "Akeem Adams": 378,
  "Central FC": 379,
  "Ferencvárosi TC": 380,
  "T&TEC Sports Club": 381,
  "Trinidad and Tobago national under-20 football team": 382,
  "United Petrotrin FC": 383,
  "Gábor Kubatov": 384,
  "Thomas Doll": 385,
  "Akeem Ayers": 386,
  "Tennessee Titans": 387,
  "Los Angeles Rams": 388,
  "\"39\"": 389,
  "New England Patriots": 390,
  "St Louis Rams": 391,
  "Akeem Dent": 392,
  "1987-09-27": 393,
  "1995-09-02": 393,
  "\"Atlanta , Georgia\"": 394,
  "Houston Texans": 395,
  "Atlanta Falcons": 396,
  "Arthur Blank": 397,
  "Akeem Priestley": 398,
  "Jamaica": 399,
  "Elizabeth II": 400,
  "Patrick Allen (politician)": 401,
  "Aleksander Barkov , Jr": 402,
  "\"Tampere , Finland\"": 403,
  "National Hockey League": 404,
  "Montreal Canadiens": 405,
  "Aleksandr Chumakov": 406,
  "Soviet Union": 407,
  "FC Torpedo Moscow": 408,
  "Aleksandr Tukmanov": 409,
  "Moscow": 410,
  "Sergey Sobyanin": 411,
  "Russia": 412,
  "Valentina Matviyenko": 413,
  "Vladimir Putin": 414,
  "Aleksandr Prudnikov": 415,
  "FC Amkar Perm": 416,
  "FC Tom Tomsk": 417,
  "Gadzhi Gadzhiyev": 418,
  "FC Spartak Moscow": 419,
  "FC Alania Vladikavkaz": 420,
  "FC Terek Grozny": 421,
  "Rashid Rakhimov": 422,
  "Russian Football National League": 423,
  "Aleksandre Guruli": 424,
  "AS Lyon-Duchère": 425,
  "FC Karpaty Lviv": 426,
  "FC Zestafoni": 427,
  "US Boulogne": 428,
  "Olympique Lyonnais": 429,
  "Parc Olympique Lyonnais": 429,
  "Alex Plante": 430,
  "Brandon , Manitoba": 431,
  "1989": 432,
  "Anyang Halla": 433,
  "Larry Maguire": 434,
  "Manitoba": 435,
  "Conservative Party of Canada": 436,
  "Salvadoran Primera División": 437,
  "Nashville , Tennessee": 438,
  "Palo Seco": 439,
  "14th New Jersey Volunteer Infantry Monument": 440,
  "Historic districts in the United States": 441,
  "Monocacy National Battlefield": 442,
  "Atatürk Monument (İzmir)": 443,
  "\"1932-07-27\"": 444,
  "Turkey": 445,
  "\"Bronze\"": 446,
  "Pietro Canonica": 447,
  "Frederick County , Maryland": 448,
  "Turkish lira": 449,
  "Peter Stöger": 450,
  "Austria national football team": 792,
  "Georgia national football team": 792,
  "1 FC Köln": 451,
  "FK Austria Wien": 452,
  "1 FC Magdeburg": 453,
  "3 Liga": 454,
  "27250": 455,
  "Jens Härtel": 456,
  "1 FC Lokomotive Leipzig": 457,
  "1 FC Union Berlin": 458,
  "2014": 459,
  "AC Cesena": 460,
  "Cesena": 461,
  "Serie B": 462,
  "23900": 463,
  "Stadio Dino Manuzzi": 464,
  "Carpi FC 1909": 465,
  "Massimo Drago": 466,
  "Delfino Pescara 1936": 467,
  "SSD Potenza Calcio": 468,
  "AC Chievo Verona": 469,
  "\"Verona , Italy\"": 470,
  "39371": 471,
  "Stadio Marc'Antonio Bentegodi": 472,
  "Verona": 473,
  "Rolando Maran": 474,
  "FC Bari 1908": 475,
  "Unione Triestina 2012 SSD": 476,
  "Varese Calcio SSD.": 477,
  "Varese Calcio SSD": 477,
  "Greece": 478,
  "Athens": 479,
  "A.E Dimitra Efxeinoupolis": 480,
  "Euro": 481,
  "Alexis Tsipras": 482,
  "Nikos Voutsis": 483,
  "Prokopis Pavlopoulos": 484,
  "Efxeinoupoli": 485,
  "1500": 486,
  "A EPSTH 2nd GROUP": 487,
  "2014–15 A EPSTH , Greece": 488,
  "AFC Blackpool": 489,
  "Blackpool": 490,
  "Blackpool FC": 490,
  "English football league system": 491,
  "North West Counties Football League": 492,
  "2014–15 North West Counties Football League": 492,
  "Stuart Parker (footballer)": 493,
  "Blackburn Rovers FC": 494,
  "Bury FC": 495,
  "Chesterfield FC": 496,
  "KV Mechelen": 497,
  "Runcorn FC Halton": 498,
  "Sparta Rotterdam": 499,
  "Bacon Explosion": 500,
  "\"Main course\"": 501,
  "Bacon": 502,
  "Sausage": 503,
  "Kansas City metropolitan area": 504,
  "\"Bacon ,sausage\"": 505,
  "Baked Alaska": 506,
  "\"France , United States or China\"": 507,
  "Christmas pudding": 508,
  "Meringue": 509,
  "France": 510,
  "Gérard Larcher": 511,
  "Manuel Valls": 512,
  "Dessert": 513,
  "\"Dessert\"": 513,
  "Cookie": 514,
  "Sandesh (confectionery)": 515,
  "Bakewell pudding": 516,
  "Bakewell tart": 517,
  "Frangipane": 518,
  "Fruit preserves": 519,
  "Shortcrust pastry": 520,
  "Derbyshire Dales": 521,
  "Derbyshire": 522,
  "Patrick McLoughlin": 523,
  "\"Warm (freshly baked) or cold\"": 524,
  "Barny Cakes": 525,
  "Claude Bartolone": 526,
  "François Hollande": 527,
  "Batagor": 528,
  "Shumai": 529,
  "Siomay": 530,
  "Peanut sauce": 531,
  "Beef kway teow": 532,
  "Singapore": 533,
  "Oyster sauce": 534,
  "Palm sugar": 535,
  "Sesame oil": 536,
  "Standard Chinese": 537,
  "Halimah Yacob": 538,
  "\"Singapore and Indonesia\"": 539,
  "\"Kway teow , beef tender loin , gula Melaka , sliced , dried black beans , garlic , dark soy sauce , lengkuas , oyster sauce , soya sauce , chilli and sesame oil\"": 540,
  "Bionico": 541,
  "Condensed milk": 542,
  "Granola": 543,
  "Mexican Spanish": 544,
  "Enrique Peña Nieto": 545,
  "Silvano Aureoles Conejo": 546,
  "Cottage cheese": 547,
  "Honey": 548,
  "Guadalajara": 549,
  "Jalisco": 550,
  "Ice cream": 551,
  "Hong Kong": 552,
  "Carrie Lam (politician)": 553,
  "Acharya Institute of Technology": 554,
  "Visvesvaraya Technological University": 555,
  "Karnataka": 556,
  "Belgaum": 557,
  "Bangalore": 558,
  "\"In Soldevanahalli , Acharya Dr. Sarvapalli Radhakrishnan Road , Hessarghatta Main Road , Bangalore – 560090.\"": 559,
  "\"Dr. G. P. Prabhukumar\"": 560,
  "\"Blue , White and Orange\"": 561,
  "All India Council for Technical Education": 562,
  "Tennis": 563,
  "International Tennis Federation": 564,
  "Mumbai": 565,
  "School of Business and Social Sciences at the Aarhus University": 566,
  "Lars Løkke Rasmussen": 567,
  "European University Association": 568,
  "Brussels": 569,
  "737": 570,
  "1928": 571,
  "Aarhus": 572,
  "Magistrate": 573,
  "\"Thomas Pallesen\"": 574,
  "\"Universitas Aarhusiensis\"": 575,
  "16000": 576,
  "Aaron Daggett": 577,
  "Aaron S. Daggett": 577,
  "Purple Heart": 578,
  "Battle of Fredericksburg": 579,
  "Battle of Salem Church": 580,
  "American Civil War": 581,
  "Battle of Cold Harbor": 582,
  "Robert E. Lee": 583,
  "Battle of Gettysburg": 584,
  "Battle of the Wilderness": 585,
  "Ab Klink": 586,
  "Erasmus University Rotterdam": 587,
  "Netherlands": 588,
  "Stellendam": 589,
  "\"Stellendam , Netherlands\"": 590,
  "Mark Rutte": 591,
  "Christian Democratic Appeal": 592,
  "Abdul Rahman Ya'kub": 593,
  "Stephen Yong Kuet Tze": 594,
  "Abdul Taib Mahmud": 595,
  "Tuanku Bujang Tuanku Othman": 596,
  "Kingdom of Sarawak": 597,
  "\"Demak Jaya , Jalan Bako , Kuching , Sarawak\"": 598,
  "Sulaiman Abdul Rahman Taib": 599,
  "Miri , Malaysia": 600,
  "Parti Pesaka Bumiputera Bersatu": 601,
  "Kuching": 602,
  "Adenan Satem": 603,
  "Japanese occupation of British Borneo": 604,
  "Abdulsalami Abubakar": 605,
  "Nigeria": 606,
  "Yemi Osinbajo": 607,
  "Abner W. Sibal": 608,
  "Abner Sibal": 608,
  "World War II": 609,
  "World War I": 609,
  "Chiang Kai-shek": 610,
  "Franklin D. Roosevelt": 611,
  "\"Member of the Connecticut Senate from the 26th District\"": 612,
  "Ridgewood , Queens": 613,
  "Donald J. Irwin": 614,
  "Donald Irwin": 614,
  "Marjorie Farmer": 615,
  "Adam Koc": 616,
  "Cross of Independence": 617,
  "Polish–Soviet War": 618,
  "Cross of Valour (Poland)": 619,
  "Leon Trotsky": 620,
  "Russian Civil War": 621,
  "Legion of Honour": 622,
  "Officer's Star \"Parasol\"": 623,
  "Adolf Schärf": 624,
  "Mikulov": 625,
  "Alfons Gorbach": 626,
  "Agnes Kant": 627,
  "Radboud University Nijmegen": 628,
  "Parliamentary group leader": 629,
  "\"Member of the House of Representatives\"": 630,
  "Socialist Party (Netherlands)": 631,
  "Emile Roemer": 632,
  "Airey Neave": 633,
  "1857-03-03": 19,
  "2001-03-01": 19,
  "2004-03-02": 19,
  "2008-03-09": 19,
  "1953-06-30": 634,
  "Battle of France": 635,
  "1853-03-04": 19,
  "\"Knightsbridge , London\"": 636,
  "Albert Jennings Fountain": 637,
  "Staten Island": 638,
  "Arabic": 639,
  "Doña Ana County , New Mexico": 640,
  "New Mexico Territory": 641,
  "Edmund J. Davis": 642,
  "Austria-Hungary": 643,
  "Imst": 644,
  "County of Tyrol": 645,
  "Josef Klaus": 646,
  "University of Vienna": 647,
  "Alfred Moore Scales": 648,
  "University of North Carolina at Chapel Hill": 649,
  "James Madison Leach": 650,
  "James W. Reid (politician)": 651,
  "Siege of Petersburg": 652,
  "Daniel Gould Fowle": 653,
  "Princeton University": 654,
  "Alfred N. Phillips": 655,
  "Connecticut": 656,
  "Mayor of Stamford , Connecticut": 657,
  "Darien , Connecticut": 658,
  "Whig Party (United States)": 659,
  "Daniel Webster": 660,
  "Alvah Sabin": 661,
  "Henry Clay": 662,
  "Vermont's 3rd congressional district": 663,
  "Battle of Antietam": 664,
  "Battle of Chancellorsville": 665,
  "Gerd von Rundstedt": 666,
  "Polish language": 667,
  "Red": 668,
  "Airman (comicsCharacter)": 669,
  "\"Drake Stevens\"": 670,
  "George Kapitan": 671,
  "Harry Sahle": 672,
  "Ballistic (comicsCharacter)": 673,
  "\"Kelvin Mao\"": 674,
  "\"Michael Manley\"": 675,
  "Baymax": 676,
  "Duncan Rouleau": 677,
  "Steven T. Seagle": 678,
  "Big Hero 6 (film)": 679,
  "Alan Tudyk": 680,
  "Ryan Potter": 681,
  "Scott Adsit": 682,
  "Maya Rudolph": 683,
  "Northbrook , Illinois": 684,
  "Ben Urich": 685,
  "Gene Colan": 686,
  "\"Benjamin Urich\"": 687,
  "Roger McKenzie (comic book writer)": 688,
  "Blockbuster (comicsCharacter)": 689,
  "Carmine Infantino": 690,
  "Gardner Fox": 691,
  "Roger Stern": 692,
  "Tom Lyle": 693,
  "Bozo the Iron Man": 694,
  "George Brenner": 695,
  "\"Hugh Hazzard\"": 696,
  "The Arrow (comicsCharacter)": 697,
  "\"Ralph Payne\"": 698,
  "Paul Gustavson": 699,
  "\"Rick Parker\"": 700,
  "Aarhus Airport": 701,
  "Jacob Bundsgaard": 702,
  "Tirstrup": 703,
  "Aktieselskab": 704,
  "2702.0": 705,
  "\"10L/28R\"": 706,
  "\"10R/28L\"": 707,
  "2776.0": 708,
  "2777.0": 709,
  "Al Asad Airbase": 710,
  "618": 711,
  "\"Al Anbar Province , Iraq\"": 712,
  "Iraq": 713,
  "3990.0": 714,
  "3992.88": 715,
  "General Dynamics F-16 Fighting Falcon": 716,
  "McDonnell Douglas F-15 Eagle": 717,
  "Lockheed AC-130": 718,
  "Invasion of Grenada": 719,
  "Korean War": 720,
  "Operation Enduring Freedom": 721,
  "United States invasion of Panama": 722,
  "Alderney Airport": 723,
  "Poaceae": 724,
  "Alderney": 725,
  "497": 726,
  "733": 727,
  "877": 728,
  "Monocotyledon": 729,
  "Commelinids": 730,
  "Allama Iqbal International Airport": 731,
  "Pakistan": 732,
  "Pakistan Civil Aviation Authority": 733,
  "2900.0": 734,
  "3310.0": 735,
  "3360.12": 736,
  "Nawaz Sharif": 737,
  "Sardar Ayaz Sadiq": 738,
  "Punjab , Pakistan": 739,
  "2900": 740,
  "Provincial Assembly of the Punjab": 741,
  "Jinnah International Airport": 742,
  "3310": 743,
  "Amsterdam Airport Schiphol": 744,
  "3800": 745,
  "-3.3528": 746,
  "18": 747,
  "Antwerp": 748,
  "Arrondissement of Antwerp": 749,
  "Antwerp International Airport": 750,
  "12.0": 751,
  "\"Flemish department of Mobility and Public Works\"": 752,
  "Flemish Government": 753,
  "Flemish Region": 754,
  "600.0": 755,
  "Flanders": 756,
  "1510": 757,
  "600": 758,
  "Appleton International Airport": 759,
  "Athens International Airport": 759,
  "8002": 760,
  "280": 761,
  "Outagamie County , Wisconsin": 762,
  "Greenville , Wisconsin": 763,
  "\"ATW\"": 764,
  "Ardmore Airport (New Zealand)": 765,
  "\"03L/21R\"": 766,
  "\"03R/21L\"": 767,
  "\"07/25\"": 768,
  "Auckland": 769,
  "Civil Aviation Authority of New Zealand": 770,
  "Wellington": 771,
  "1411.0": 772,
  "597.0": 773,
  "Spata": 774,
  "3800.0": 775,
  "4000.0": 776,
  "94": 777,
  "Atlantic City International Airport": 778,
  "Atlantic City , New Jersey": 779,
  "Don Guardian": 780,
  "Port Authority of New York and New Jersey": 781,
  "\"13/31\"": 782,
  "South Jersey Transportation Authority": 783,
  "Stephen Dilts": 784,
  "1873.0": 785,
  "3048": 786,
  "Egg Harbor Township , New Jersey": 787,
  "New Jersey": 788,
  "Lahore": 789,
  "1868-08-15": 309,
  "2005-08-11": 309,
  "2004-08-31": 309,
  "1.905": 790,
  "Goslar": 791,
  "Germany national under-21 football team": 792,
  "Germany national youth football team": 792,
  "Georgia national under-21 football team": 792,
  "Scotland national under-21 football team": 792,
  "Goslarer SC 08": 793,
  "Londrina": 794,
  "Alan Martin": 795,
  "Hamilton Academical FC": 796,
  "Centre (ice hockey)": 797,
  "3.5 kilograms": 292,
  "1948": 798,
  "\"Moscow , Russia\"": 799,
  "FC Anzhi Makhachkala": 800,
  "FC Dynamo Moscow": 801,
  "FC Rubin Kazan": 802,
  "185.0 centimetres": 803,
  "178.0 centimetres": 803,
  "Batumi": 804,
  "Georgian Soviet Socialist Republic": 805,
  "US Lesquin": 806,
  "Hamilton , South Lanarkshire": 807,
  "New Douglas Park": 808,
  "Pallacanestro Cantù": 809,
  "Lega Basket Serie A": 810,
  "Peñarol": 811,
  "Jorge Orosmán da Silva": 812,
  "Ricky Sbragia": 813,
  "Bacon sandwich": 814,
  "Condiment": 815,
  "Ketchup": 816,
  "Mondelez International": 817,
  "1.8 g": 818,
  "1999": 819,
  "\"fried fish dumpling with tofu and vegetables in peanut sauce\"": 820,
  "\"hot\"": 821,
  "Vajubhai Vala": 822,
  "Pakora": 823,
  "Paneer": 824,
  "George Winkler": 825,
  "County Limerick": 826,
  "Robert A. M. Stern": 827,
  "476": 828,
  "Ampara": 829,
  "Ampara District": 830,
  "Birmingham": 831,
  "Conservative Party (UK)": 832,
  "Dublin": 833,
  "Leinster": 834,
  "John Madin": 835,
  "Greater London Authority": 836,
  "Mestizo": 837,
  "Brian Robertson (trombonist)": 838,
  "700": 839,
  "Kempe Gowda I": 840,
  "Telanganana": 841,
  "Amazing-Man (comicsCharacter)": 842,
  "\"John Aman\"": 843,
  "BBC": 844,
  "John Reith , 1st Baron Reith": 845,
  "Rona Fairhead": 846,
  "Tony Hall , Baron Hall of Birkenhead": 847,
  "Broadcasting House": 848,
  "BBC Radio": 849,
  "Bibbo Bibbowski": 850,
  "Jerry Ordway": 851,
  "Bill Oddie": 852,
  "Rochdale": 853,
  "Kate Hardie": 854,
  "\"Mark Desmond\"": 855,
  "\"Roland Desmond\"": 856,
  "Dane Whitman Black Knight (comicsCharacter)": 857,
  "Roy Thomas": 858,
  "Ernie Colón": 859,
  "Puerto Ricans": 860,
  "Academy of Comic Book Arts": 861,
  "Alley Award": 862,
  "Sheldon Moldoff": 863,
  "Inkpot Award": 864,
  "\"DeMarce short stories in the The Grantville Gazettes\"": 865,
  "\"90640840\"": 866,
  "Physics": 867,
  "Annie Dunne": 868,
  "318875313": 869,
  "\"560\"": 870,
  "\"0025-5858\"": 871,
  "32024459": 872,
  "Above the Veil": 873,
  "\"ADICE5\"": 874,
  "Addiction": 875,
  "\"ASCQAG\"": 876,
  "\"0001-8392\"": 877,
  "57059226": 878,
  "Alcatraz Versus the Scrivener's Bones": 879,
  "Brandon Sanderson": 880,
  "\"0002-9327\"": 881,
  "\"1080-6377\"": 882,
  "1878": 883,
  "\"1.337\"": 884,
  "Association for Computing Machinery": 885,
  "Alexander L. Wolf": 886,
  "Lincoln , Nebraska": 887,
  "Blaenau Ffestiniog": 888,
  "Porius: A Romance of the Dark Ages": 889,
  "Polish Academy of Sciences": 890,
  "Warsaw": 891,
  "2014–15 Bundesliga": 892,
  "\"Associazione Calcio ChievoVerona Srl\"": 893,
  "\"Association Football Club Blackpool\"": 894,
  "\"The Mechanics\"": 895,
  "Berliner AK 07": 896,
  "FSV Zwickau": 897,
  "RB Leipzig": 898,
  "SV Germania Schöneiche": 899,
  "First Vienna FC": 900,
  "SC Wiener Neustadt": 901,
  "Battle of Garnett's & Golding's Farm": 902,
  "Battle of Mine Run": 903,
  "Battle of South Mountain": 904,
  "Battle of White Oak Swamp": 905,
  "Maine": 906,
  "West Roxbury": 907,
  "1868-11-17": 165,
  "\"Member of the Senate\"": 908,
  "Ministry of Health , Welfare and Sport (Netherlands)": 909,
  "Senate (Netherlands)": 910,
  "University of Adelaide": 911,
  "1936-05-21": 912,
  "Kota Samarahan": 913,
  "Sarawak": 914,
  "Niger State": 915,
  "1965-01-03": 916,
  "1939-01-03": 916,
  "Alexandria , Virginia": 917,
  "Congress Poland": 918,
  "Suwałki": 919,
  "1885-01-21": 920,
  "Overland Campaign": 921,
  "Peninsula Campaign": 922,
  "Reidsville , North Carolina": 923,
  "Democratic Party (United States)": 924,
  "1793-10-23": 925,
  "Georgia , Vermont": 926,
  "Baptists": 927,
  "Homer Elihu Royce": 928,
  "Antonis Samaras": 929,
  "Evangelos Venizelos": 930,
  "Konstantinos Mitsotakis": 931,
  "Buenos Aires": 932,
  "Buenos Aires City Legislature": 933,
  "Gabriela Michetti": 934,
  "Horacio Rodríguez Larreta": 935,
  "John F. Kennedy": 936,
  "Dwight D. Eisenhower": 937,
  "Juan Perón": 938,
  "Hortensio Quijano": 939,
  "Labour Party (Argentina)": 940,
  "Eva Perón": 941,
  "Makis Voridis": 942,
  "New Democracy (Greece)": 943,
  "Blue": 944,
  "Apollo 12": 945,
  "Alfred Worden": 946,
  "David Scott": 947,
  "\"Edwin Eugene Aldrin Jr.\"": 948,
  "Distinguished Service Medal (United States Navy)": 949,
  "Department of Commerce Gold Medal": 950,
  "Test pilot": 951,
  "\"Deceased\"": 952,
  "Hook 'em (mascot)": 953,
  "Gregory L. Fenves": 954,
  "1976": 955,
  "8820 minutes": 956,
  "\"Maryland\"": 957,
  "Adams County , Pennsylvania": 958,
  "Cumberland County , Pennsylvania": 959,
  "Carroll County , Maryland": 960,
  "Franklin County , Pennsylvania": 961,
  "Azerbaijan": 962,
  "Artur Rasizade": 963,
  "Prime Minister of Azerbaijan": 964,
  "National Assembly (Azerbaijan)": 965,
  "Dead Man's Plack": 966,
  "Æthelwald , Ealdorman of East Anglia": 967,
  "Ankara": 968,
  "Istanbul": 969,
  "President of Turkey": 970,
  "Fountain County , Indiana": 971,
  "77.41 square kilometres": 972,
  "King County , Washington": 973,
  "Pierce County , Washington": 974,
  "Hays County , Texas": 975,
  "San Marcos , Texas": 976,
  "Newark , New Jersey": 977,
  "Tacoma , Washington": 978,
  "Williamson County , Texas": 979,
  "Round Rock , Texas": 980,
  "(19255) 1994 VK8": 981,
  "4.56 kilometres per second": 982,
  "0.0925 kilometres per second": 982,
  "0.0999 kilometres per second": 982,
  "37.16 kilometres per second": 982,
  "0.0252 kilometres per second": 982,
  "18.44 kilometres per second": 982,
  "0.0348 kilometres per second": 982,
  "16.86 kilometres per second": 982,
  "0.0482 kilometres per second": 982,
  "0.0068 kilometres per second": 982,
  "17.92 kilometres per second": 982,
  "0.0112 kilometres per second": 982,
  "0.21 kilometres per second": 982,
  "16.54 kilometres per second": 982,
  "0.02 kilometres per second": 982,
  "17.99 kilometres per second": 982,
  "0.0455 kilometres per second": 982,
  "18.29 kilometres per second": 982,
  "(29075) 1950 DA": 983,
  "(66063) 1998 RO1": 984,
  "Lincoln Near-Earth Asteroid Research": 985,
  "(66391) 1999 KW4": 986,
  "0": 987,
  "16244700.0": 988,
  "29919600000.0": 989,
  "9953.28": 990,
  "1000 Piazzia": 991,
  "\"1967 ED\"": 992,
  "488160.0": 993,
  "352497000000.0": 994,
  "1001 Gaussia": 995,
  "9.7": 996,
  "\"1923 OAA907 XC\"": 997,
  "\"A911 MD\"": 998,
  "154.0 kelvins": 999,
  "171.0 kelvins": 999,
  "5.75 days": 1000,
  "1202.846 days": 1000,
  "419113394.55312 kilometres": 1001,
  "2004-10-22": 1002,
  "374976.0 seconds": 1003,
  "184434000000.0": 1004,
  "7.66": 1005,
  "7.08": 1006,
  "560937000.0 kilometres": 1007,
  "F. Vilas": 1008,
  "NR Pogson": 1009,
  "2368.05 days": 1010,
  "\"A894 VA; A904 VD;\"": 1011,
  "\"A919 HA; 1927 WB;\"": 1012,
  "288749000000.0": 1013,
  "\"A900 GA\"": 1014,
  "198803.0": 1015,
  "Alphonse Borrelly": 1016,
  "Nikolai Chernykh": 1017,
  "296521000.0 kilometres": 1018,
  "Sedan": 1019,
  "\"3-speed automatic\"": 1020,
  "120.0 inches": 1021,
  "127.0 inches": 1021,
  "32.2": 1022,
  "\"In service\"": 1023,
  "38.892": 1024,
  "\"Rambler Matador\"": 1025,
  "\"VAM Classic\"": 1026,
  "\"Australia\"": 1027,
  "Marysville Auto Plant": 1028,
  "\"5-speed manual\"": 1029,
  "\"6-speed manual (Getrag)\"": 1030,
  "\"Wrecked\"": 1031,
  "18.52": 1032,
  "1937": 1033,
  "5.4 metres": 1034,
  "2003-09-27": 1035,
  "2004-12-18": 1036,
  "2009-12-18": 1036,
  "2002-12-05": 1036,
  "Courcouronnes": 1037,
  "Audi": 1038,
  "Audi e-tron": 1039,
  "August Horch": 1040,
  "Ducati": 1041,
  "Lamborghini": 1042,
  "Carnival Corporation & plc": 1043,
  "DeSoto Firedome": 1044,
  "Sergio Marchionne": 1045,
  "Berlin": 1046,
  "Germans": 1047,
  "Joachim Gauck": 1048,
  "Norbert Lammert": 1049,
  "Stanislaw Tillich": 1050,
  "French Guiana": 1051,
  "Kourou , French Guiana": 1052,
  "MTU Friedrichshafen": 1053,
  "Friedrichshafen": 1053,
  "Rolls-Royce Holdings": 1054,
  "Rolls-Royce Power Systems": 1055,
  "Neptun Werft": 1056,
  "P&O (company)": 1057,
  "2777": 1058,
  "Abilene Regional Airport": 1059,
  "3678": 1060,
  "7202": 1061,
  "\"KABI\"": 1062,
  "\"ABI\"": 1062,
  "1121.0": 1063,
  "2194.0": 1064,
  "2195.0": 1065,
  "\"17L/35R\"": 1066,
  "\"17R/35L\"": 1067,
  "Adirondack Regional Airport": 1068,
  "1219.0": 1069,
  "\"ORAA\"": 1070,
  "\"09R/27L\"": 1071,
  "88.0": 1072,
  "497.0": 1073,
  "733.0": 1074,
  "877.0": 1075,
  "\"18L/36R\"": 1076,
  "\"18R/36L\"": 1077,
  "Alpena County Regional Airport": 1078,
  "Maple Ridge Township , Alpena County , Michigan": 1079,
  "Wilson Township , Alpena County , Michigan": 1080,
  "\"APN\"": 1081,
  "Alpena County , Michigan": 1082,
  "3300.0": 1083,
  "3453.0": 1084,
  "1510.0": 1085,
  "1982.0": 1086,
  "\"3/21\"": 1087,
  "518.0": 1088,
  "\"KACY\"": 1089,
  "75": 1090,
  "23.0": 1091,
  "Danes": 1092,
  "Danish language": 1093,
  "Fallujah": 1094,
  "Clayton , Winnebago County , Wisconsin": 1095,
  "Grand Chute , Wisconsin": 1096,
  "Menasha (town) , Wisconsin": 1097,
  "Indian Air Force": 1098,
  "HAL Light Combat Helicopter": 1099,
  "Infraero": 1100,
  "Brasília": 1101,
  "Iraqi dinar": 1102,
  "Kurdish languages": 1103,
  "Fuad Masum": 1104,
  "Haider al-Abadi": 1105,
  "Malik Muhammad Rafique Rajwana": 1106,
  "Shehbaz Sharif": 1107,
  "São José dos Pinhais": 1108,
  "South Region , Brazil": 1109,
  "Turkmenistan Airlines": 1110,
  "Ashgabat": 1111,
  "Turkmenistan": 1112,
  "Turkmenabat Airport": 1113,
  "1986 United States bombing of Libya": 1114,
  "Uttar Pradesh": 1115,
  "Awadh": 1116,
  "Bundelkhand": 1117,
  "Ram Naik": 1118,
  "2439": 1119,
  "4000": 1120,
  "1873": 1121,
  "\"AC Cheivo Verona Srl\"": 1122,
  "Monarchy of Denmark": 1123,
  "25.0": 1124,
  "88": 1125
}